{
    "VideoEnhance": [
        {
           "proName": 2169E,
            "cameraId": 1,
            "nvStartBvTrigger": -15.0,
            "nvTransInter": 20.0,
            "nvBrightenLevel": 0.8,
            "nvLocalEnable": 0,
            "nvMaxLceStrenth": 1.0
        },
        {
            "proName": 2169E,
            "cameraId": 0,
            "nvStartBvTrigger": -20.0,
            "nvTransInter": 20.0,
            "nvBrightenLevel": 0.8,
            "nvLocalEnable": 0,
            "nvMaxLceStrenth": 1.0
        }
    ]
}