[
    {
        "project":"2169E",
        "name":"default",
        "product":"RMX3392",
        "device":"RE879EL1",
        "model":"RMX3392",
        "first_api_level":"31",
        "brand":"realme",
        "manufacturer":"realme",
        "base_oses": [
            {
              "13": "realme/RMX3392/RE879EL1:13/TP1A.220905.001/S.146c688-177f3:user/release-keys"
            }
        ]
    }

]
